…
``` r
rest_inspections =
  rest_inspections %>% 
  filter(grade %in% c("A", "B", "C"), boro != "0")
```

Let’s look at pizza places.

``` r
rest_inspections %>% 
  mutate(dba = str_to_upper(dba)) %>% 
  filter(str_detect(dba, "PIZZ"))
```

    ## # A tibble: 1,555 x 26
    ##     camis dba   boro  building street zipcode phone cuisine_descrip…
    ##     <dbl> <chr> <chr> <chr>    <chr>  <chr>   <chr> <chr>           
    ##  1 4.14e7 SOFI… Broo… 2822     CONEY… 11235   7185… Pizza           
    ##  2 5.01e7 ROUN… Stat… 1957     VICTO… 10314   7185… Pizza/Italian   
    ##  3 5.01e7 BRAV… Manh… 360      7 AVE… 10001   2122… American        
    ##  4 4.13e7 JOHN… Broo… 5806     5 AVE… 11220   7184… Pizza/Italian   
    ##  5 4.09e7 THE … Quee… 60-48    MYRTL… 11385   7183… Pizza/Italian   
    ##  6 5.00e7 J & … Broo… 5507     5 AVE… 11220   7184… Pizza           
    ##  7 5.01e7 J & … Quee… 4013     82ND … 11373   7184… Spanish         
    ##  8 5.00e7 NY P… Quee… 91-14    SUTPH… 11435   7186… American        
    ##  9 5.01e7 BIG … Stat… 4069     HYLAN… 10308   7183… Pizza/Italian   
    ## 10 5.00e7 MAMA… Stat… 2146     FORES… 10303   7188… Pizza/Italian   
    ## # … with 1,545 more rows, and 18 more variables: inspection_date <dttm>,
    ## #   action <chr>, violation_code <chr>, violation_description <chr>,
    ## #   critical_flag <chr>, score <dbl>, grade <chr>, grade_date <dttm>,
    ## #   record_date <dttm>, inspection_type <chr>, latitude <dbl>, longitude <dbl>,
    ## #   community_board <dbl>, council_district <chr>, census_tract <chr>,
    ## #   bin <dbl>, bbl <dbl>, nta <chr>
…
